[1209/221859.995:ERROR:crash_report_database_win.cc(563)] CreateDirectory C:\Users\Public\Documents\Google\Chrome: The system cannot find the path specified. (0x3)
[1209/221900.000:ERROR:registration_protocol_win.cc(83)] TransactNamedPipe: The pipe has been ended. (0x6D)
[1209/221900.001:ERROR:crash_report_database_win.cc(563)] CreateDirectory C:\Users\Public\Documents\Google\Chrome: The system cannot find the path specified. (0x3)
